<?xml version="1.0" encoding="utf-8"?>
<svg xmlns="http://www.w3.org/2000/svg" xmlns:xlink="http://www.w3.org/1999/xlink" version="1.1" width="1000px" height="338px" viewBox="0 0 1540 520">
	<title>ორთაშუა განლაგება</title>
	<style type="text/css">
	rect, polygon
		{fill:#707070;
		stroke:url(#gradient);
		stroke-width:15;}
	defs + rect, g > rect:first-child
		{fill:#303030;
		stroke:#101010;
		stroke-width:5;}
	text
		{font-size:25px;
		font-family:serif;
		text-shadow:silver 2px 2px 2px;
		fill:yellow;}
	text + text
		{font-size:15px;}
	</style>
	<defs>
		<linearGradient id="gradient" x1="0" x2="1" y1="0" y2="1">
			<stop offset="0%" stop-color="#909090"/>
			<stop offset="100%" stop-color="#101010"/>
		</linearGradient>
	</defs>

	<!--
		Median layout
		Carpalx optimization for ISO keyboard
		2020 Giorgi Chavchanidze
		Public domain
	-->

	<!-- Georgian part. Level 1 -->

	<!-- Case -->

	<rect x="3" y="3" rx="3" ry="3" width="1534" height="514"/>

	<!-- Left column -->

	<rect x="20" y="120" rx="5" ry="5" width="130" height="80"/>
	<text x="40" y="170">⭾</text>
	<a xlink:href="dris.svg#svgView(viewBox(0,520,1540,520))">
	<rect x="20" y="220" rx="5" ry="5" width="160" height="80"/>
	<text x="40" y="270">⌨</text>
	</a>
	<a xlink:href="dris.svg#svgView(viewBox(1540,0,1540,520))">
	<rect x="20" y="320" rx="5" ry="5" width="110" height="80"/>
	<text x="40" y="370">⇧</text>
	</a>

	<!-- Right column -->

	<rect x="1320" y="20" rx="5" ry="5" width="200" height="80"/>
	<text x="1340" y="70">⟵</text>
	<polygon points="1370,120 1520,120 1520,300 1400,300 1400,200 1370,200" stroke-linejoin="round"/>
	<text x="1450" y="180">⮐</text>
	<a xlink:href="dris.svg#svgView(viewBox(1540,0,1540,520))">
	<rect x="1250" y="320" rx="5" ry="5" width="270" height="80"/>
	<text x="1450" y="370">⇧</text>
	</a>

	<!-- Numeric row -->

	<rect x="20" y="20" rx="5" ry="5" width="80" height="80"/>
	<text x="50" y="70">/</text>
	<rect x="120" y="20" rx="5" ry="5" width="80" height="80"/>
	<text x="150" y="70">1</text>
	<rect x="220" y="20" rx="5" ry="5" width="80" height="80"/>
	<text x="250" y="70">2</text>
	<rect x="320" y="20" rx="5" ry="5" width="80" height="80"/>
	<text x="350" y="70">3</text>
	<rect x="420" y="20" rx="5" ry="5" width="80" height="80"/>
	<text x="450" y="70">4</text>
	<rect x="520" y="20" rx="5" ry="5" width="80" height="80"/>
	<text x="550" y="70">5</text>
	<rect x="620" y="20" rx="5" ry="5" width="80" height="80"/>
	<text x="650" y="70">6</text>
	<rect x="720" y="20" rx="5" ry="5" width="80" height="80"/>
	<text x="750" y="70">7</text>
	<rect x="820" y="20" rx="5" ry="5" width="80" height="80"/>
	<text x="850" y="70">8</text>
	<rect x="920" y="20" rx="5" ry="5" width="80" height="80"/>
	<text x="950" y="70">9</text>
	<rect x="1020" y="20" rx="5" ry="5" width="80" height="80"/>
	<text x="1050" y="70">0</text>
	<rect x="1120" y="20" rx="5" ry="5" width="80" height="80"/>
	<text x="1150" y="70">-</text>
	<rect x="1220" y="20" rx="5" ry="5" width="80" height="80"/>
	<text x="1250" y="70">=</text>

	<!-- Top row -->

	<rect x="170" y="120" rx="5" ry="5" width="80" height="80"/>
	<text x="200" y="170">ყ</text>
	<rect x="270" y="120" rx="5" ry="5" width="80" height="80"/>
	<text x="300" y="170">შ</text>
	<rect x="370" y="120" rx="5" ry="5" width="80" height="80"/>
	<text x="400" y="170">ტ</text>
	<rect x="470" y="120" rx="5" ry="5" width="80" height="80"/>
	<text x="500" y="170">ლ</text>
	<rect x="570" y="120" rx="5" ry="5" width="80" height="80"/>
	<text x="600" y="170">თ</text>
	<rect x="670" y="120" rx="5" ry="5" width="80" height="80"/>
	<text x="700" y="170">წ</text>
	<rect x="770" y="120" rx="5" ry="5" width="80" height="80"/>
	<text x="800" y="170">უ</text>
	<rect x="870" y="120" rx="5" ry="5" width="80" height="80"/>
	<text x="900" y="170">ვ</text>
	<rect x="970" y="120" rx="5" ry="5" width="80" height="80"/>
	<text x="1000" y="170">ხ</text>
	<rect x="1070" y="120" rx="5" ry="5" width="80" height="80"/>
	<text x="1100" y="170">კ</text>
	<rect x="1170" y="120" rx="5" ry="5" width="80" height="80"/>
	<text x="1200" y="170">ძ</text>
	<rect x="1270" y="120" rx="5" ry="5" width="80" height="80"/>
	<text x="1300" y="170">ჟ</text>

	<!-- Home row -->

	<rect x="200" y="220" rx="5" ry="5" width="80" height="80"/>
	<text x="230" y="270">დ</text>
	<rect x="300" y="220" rx="5" ry="5" width="80" height="80"/>
	<text x="330" y="270">რ</text>
	<rect x="400" y="220" rx="5" ry="5" width="80" height="80"/>
	<text x="430" y="270">ი</text>
	<rect x="500" y="220" rx="5" ry="5" width="80" height="80"/>
	<text x="530" y="270">ს</text>
	<rect x="600" y="220" rx="5" ry="5" width="80" height="80"/>
	<text x="630" y="270">ნ</text>
	<rect x="700" y="220" rx="5" ry="5" width="80" height="80"/>
	<text x="730" y="270">ო</text>
	<rect x="800" y="220" rx="5" ry="5" width="80" height="80"/>
	<text x="830" y="270">ე</text>
	<rect x="900" y="220" rx="5" ry="5" width="80" height="80"/>
	<text x="930" y="270">ა</text>
	<rect x="1000" y="220" rx="5" ry="5" width="80" height="80"/>
	<text x="1030" y="270">მ</text>
	<rect x="1100" y="220" rx="5" ry="5" width="80" height="80"/>
	<text x="1130" y="270">ბ</text>
	<rect x="1200" y="220" rx="5" ry="5" width="80" height="80"/>
	<text x="1230" y="270">გ</text>
	<rect x="1300" y="220" rx="5" ry="5" width="80" height="80"/>
	<text x="1330" y="270">ჩ</text>

	<!-- Bottom row -->

	<rect x="150" y="320" rx="5" ry="5" width="80" height="80"/>
	<text x="180" y="370">ჯ</text>
	<rect x="250" y="320" rx="5" ry="5" width="80" height="80"/>
	<text x="280" y="370">ჭ</text>
	<rect x="350" y="320" rx="5" ry="5" width="80" height="80"/>
	<text x="380" y="370">ღ</text>
	<rect x="450" y="320" rx="5" ry="5" width="80" height="80"/>
	<text x="480" y="370">ქ</text>
	<rect x="550" y="320" rx="5" ry="5" width="80" height="80"/>
	<text x="580" y="370">ც</text>
	<rect x="650" y="320" rx="5" ry="5" width="80" height="80"/>
	<text x="680" y="370">ზ</text>
	<rect x="750" y="320" rx="5" ry="5" width="80" height="80"/>
	<text x="780" y="370">.</text>
	<rect x="850" y="320" rx="5" ry="5" width="80" height="80"/>
	<text x="880" y="370">,</text>
	<rect x="950" y="320" rx="5" ry="5" width="80" height="80"/>
	<text x="980" y="370">პ</text>
	<rect x="1050" y="320" rx="5" ry="5" width="80" height="80"/>
	<text x="1080" y="370">ფ</text>
	<rect x="1150" y="320" rx="5" ry="5" width="80" height="80"/>
	<text x="1180" y="370">ჰ</text>

	<!-- Space row -->

	<rect x="20" y="420" rx="5" ry="5" width="130" height="80"/>
	<text x="40" y="470">⎈</text>
	<rect x="170" y="420" rx="5" ry="5" width="110" height="80"/>
	<text x="210" y="470">⁜</text>
	<rect x="300" y="420" rx="5" ry="5" width="110" height="80"/>
	<text x="330" y="470">⎇</text>
	<rect x="430" y="420" rx="5" ry="5" width="570" height="80"/>
	<rect x="1020" y="420" rx="5" ry="5" width="110" height="80"/>
	<text x="1050" y="470">⎇</text>
	<rect x="1150" y="420" rx="5" ry="5" width="110" height="80"/>
	<text x="1190" y="470">⁜</text>
	<rect x="1280" y="420" rx="5" ry="5" width="110" height="80"/>
	<text x="1320" y="470">≣</text>
	<rect x="1410" y="420" rx="5" ry="5" width="110" height="80"/>
	<text x="1450" y="470">⎈</text>

	<g transform="translate(1540 0)">

	<!-- Georgian part. Level 2 -->

	<!-- Case -->

	<rect x="3" y="3" rx="3" ry="3" width="1534" height="514"/>

	<!-- Left column -->

	<rect x="20" y="120" rx="5" ry="5" width="130" height="80"/>
	<text x="40" y="170">⭾</text>
	<a xlink:href="dris.svg#svgView(viewBox(0,520,1540,520))">
	<rect x="20" y="220" rx="5" ry="5" width="160" height="80"/>
	<text x="40" y="270">⌨</text>
	</a>
	<a xlink:href="dris.svg#svgView(viewBox(0,0,1540,520))">
	<rect x="20" y="320" rx="5" ry="5" width="110" height="80"/>
	<text x="40" y="370">⇧</text>
	</a>

	<!-- Right column -->

	<rect x="1320" y="20" rx="5" ry="5" width="200" height="80"/>
	<text x="1340" y="70">⟵</text>
	<polygon points="1370,120 1520,120 1520,300 1400,300 1400,200 1370,200" stroke-linejoin="round"/>
	<text x="1450" y="180">⮐</text>
	<a xlink:href="dris.svg#svgView(viewBox(0,0,1540,520))">
	<rect x="1250" y="320" rx="5" ry="5" width="270" height="80"/>
	<text x="1450" y="370">⇧</text>
	</a>

	<!-- Numeric row -->

	<rect x="20" y="20" rx="5" ry="5" width="80" height="80"/>
	<text x="50" y="70">~</text>
	<rect x="120" y="20" rx="5" ry="5" width="80" height="80"/>
	<text x="150" y="70">!</text>
	<rect x="220" y="20" rx="5" ry="5" width="80" height="80"/>
	<text x="250" y="70">@</text>
	<rect x="320" y="20" rx="5" ry="5" width="80" height="80"/>
	<text x="350" y="70">#</text>
	<rect x="420" y="20" rx="5" ry="5" width="80" height="80"/>
	<text x="450" y="70">§</text>
	<rect x="520" y="20" rx="5" ry="5" width="80" height="80"/>
	<text x="550" y="70">%</text>
	<rect x="620" y="20" rx="5" ry="5" width="80" height="80"/>
	<text x="650" y="70">^</text>
	<rect x="720" y="20" rx="5" ry="5" width="80" height="80"/>
	<text x="750" y="70">&amp;</text>
	<rect x="820" y="20" rx="5" ry="5" width="80" height="80"/>
	<text x="850" y="70">*</text>
	<rect x="920" y="20" rx="5" ry="5" width="80" height="80"/>
	<text x="950" y="70">(</text>
	<rect x="1020" y="20" rx="5" ry="5" width="80" height="80"/>
	<text x="1050" y="70">)</text>
	<rect x="1120" y="20" rx="5" ry="5" width="80" height="80"/>
	<text x="1150" y="70">?</text>
	<rect x="1220" y="20" rx="5" ry="5" width="80" height="80"/>
	<text x="1250" y="70">+</text>

	<!-- Top row -->

	<rect x="170" y="120" rx="5" ry="5" width="80" height="80"/>
	<text x="200" y="170">\</text>
	<rect x="270" y="120" rx="5" ry="5" width="80" height="80"/>
	<rect x="370" y="120" rx="5" ry="5" width="80" height="80"/>
	<rect x="470" y="120" rx="5" ry="5" width="80" height="80"/>
	<text x="500" y="170">₾</text>
	<rect x="570" y="120" rx="5" ry="5" width="80" height="80"/>
	<rect x="670" y="120" rx="5" ry="5" width="80" height="80"/>
	<rect x="770" y="120" rx="5" ry="5" width="80" height="80"/>
	<rect x="870" y="120" rx="5" ry="5" width="80" height="80"/>
	<rect x="970" y="120" rx="5" ry="5" width="80" height="80"/>
	<rect x="1070" y="120" rx="5" ry="5" width="80" height="80"/>
	<rect x="1170" y="120" rx="5" ry="5" width="80" height="80"/>
	<text x="1200" y="170">[</text>
	<rect x="1270" y="120" rx="5" ry="5" width="80" height="80"/>
	<text x="1300" y="170">]</text>

	<!-- Home row -->

	<rect x="200" y="220" rx="5" ry="5" width="80" height="80"/>
	<text x="230" y="270">„</text>
	<rect x="300" y="220" rx="5" ry="5" width="80" height="80"/>
	<text x="330" y="270">“</text>
	<rect x="400" y="220" rx="5" ry="5" width="80" height="80"/>
	<rect x="500" y="220" rx="5" ry="5" width="80" height="80"/>
	<rect x="600" y="220" rx="5" ry="5" width="80" height="80"/>
	<rect x="700" y="220" rx="5" ry="5" width="80" height="80"/>
	<rect x="800" y="220" rx="5" ry="5" width="80" height="80"/>
	<rect x="900" y="220" rx="5" ry="5" width="80" height="80"/>
	<rect x="1000" y="220" rx="5" ry="5" width="80" height="80"/>
	<rect x="1100" y="220" rx="5" ry="5" width="80" height="80"/>
	<rect x="1200" y="220" rx="5" ry="5" width="80" height="80"/>
	<rect x="1300" y="220" rx="5" ry="5" width="80" height="80"/>
	<text x="1330" y="270">|</text>

	<!-- Bottom row -->

	<rect x="150" y="320" rx="5" ry="5" width="80" height="80"/>
	<rect x="250" y="320" rx="5" ry="5" width="80" height="80"/>
	<text x="280" y="370">&lt;</text>
	<rect x="350" y="320" rx="5" ry="5" width="80" height="80"/>
	<text x="380" y="370">&gt;</text>
	<rect x="450" y="320" rx="5" ry="5" width="80" height="80"/>
	<rect x="550" y="320" rx="5" ry="5" width="80" height="80"/>
	<rect x="650" y="320" rx="5" ry="5" width="80" height="80"/>
	<rect x="750" y="320" rx="5" ry="5" width="80" height="80"/>
	<text x="780" y="370">:</text>
	<rect x="850" y="320" rx="5" ry="5" width="80" height="80"/>
	<text x="880" y="370">;</text>
	<rect x="950" y="320" rx="5" ry="5" width="80" height="80"/>
	<rect x="1050" y="320" rx="5" ry="5" width="80" height="80"/>
	<rect x="1150" y="320" rx="5" ry="5" width="80" height="80"/>
	<text x="1180" y="370">—</text>

	<!-- Space row -->

	<rect x="20" y="420" rx="5" ry="5" width="130" height="80"/>
	<text x="40" y="470">⎈</text>
	<rect x="170" y="420" rx="5" ry="5" width="110" height="80"/>
	<text x="210" y="470">⁜</text>
	<rect x="300" y="420" rx="5" ry="5" width="110" height="80"/>
	<text x="330" y="470">⎇</text>
	<rect x="430" y="420" rx="5" ry="5" width="570" height="80"/>
	<rect x="1020" y="420" rx="5" ry="5" width="110" height="80"/>
	<text x="1050" y="470">⎇</text>
	<rect x="1150" y="420" rx="5" ry="5" width="110" height="80"/>
	<text x="1190" y="470">⁜</text>
	<rect x="1280" y="420" rx="5" ry="5" width="110" height="80"/>
	<text x="1320" y="470">≣</text>
	<rect x="1410" y="420" rx="5" ry="5" width="110" height="80"/>
	<text x="1450" y="470">⎈</text>

	</g>

	<g transform="translate(0 520)">

	<!-- English part. Level 1 -->

	<!-- Case -->

	<rect x="3" y="3" rx="3" ry="3" width="1534" height="514"/>

	<!-- Left column -->

	<rect x="20" y="120" rx="5" ry="5" width="130" height="80"/>
	<text x="40" y="170">⭾</text>
	<a xlink:href="dris.svg#svgView(viewBox(0,0,1540,520))">
	<rect x="20" y="220" rx="5" ry="5" width="160" height="80"/>
	<text x="40" y="270">⌨</text>
	</a>
	<a xlink:href="dris.svg#svgView(viewBox(1540,520,1540,520))">
	<rect x="20" y="320" rx="5" ry="5" width="110" height="80"/>
	<text x="40" y="370">⇧</text>
	</a>

	<!-- Right column -->

	<rect x="1320" y="20" rx="5" ry="5" width="200" height="80"/>
	<text x="1340" y="70">⟵</text>
	<polygon points="1370,120 1520,120 1520,300 1400,300 1400,200 1370,200" stroke-linejoin="round"/>
	<text x="1450" y="180">⮐</text>
	<a xlink:href="dris.svg#svgView(viewBox(1540,520,1540,520))">
	<rect x="1250" y="320" rx="5" ry="5" width="270" height="80"/>
	<text x="1450" y="370">⇧</text>
	</a>

	<!-- Numeric row -->

	<rect x="20" y="20" rx="5" ry="5" width="80" height="80"/>
	<text x="50" y="70">/</text>
	<rect x="120" y="20" rx="5" ry="5" width="80" height="80"/>
	<text x="150" y="70">1</text>
	<rect x="220" y="20" rx="5" ry="5" width="80" height="80"/>
	<text x="250" y="70">2</text>
	<rect x="320" y="20" rx="5" ry="5" width="80" height="80"/>
	<text x="350" y="70">3</text>
	<rect x="420" y="20" rx="5" ry="5" width="80" height="80"/>
	<text x="450" y="70">4</text>
	<rect x="520" y="20" rx="5" ry="5" width="80" height="80"/>
	<text x="550" y="70">5</text>
	<rect x="620" y="20" rx="5" ry="5" width="80" height="80"/>
	<text x="650" y="70">6</text>
	<rect x="720" y="20" rx="5" ry="5" width="80" height="80"/>
	<text x="750" y="70">7</text>
	<rect x="820" y="20" rx="5" ry="5" width="80" height="80"/>
	<text x="850" y="70">8</text>
	<rect x="920" y="20" rx="5" ry="5" width="80" height="80"/>
	<text x="950" y="70">9</text>
	<rect x="1020" y="20" rx="5" ry="5" width="80" height="80"/>
	<text x="1050" y="70">0</text>
	<rect x="1120" y="20" rx="5" ry="5" width="80" height="80"/>
	<text x="1150" y="70">-</text>
	<rect x="1220" y="20" rx="5" ry="5" width="80" height="80"/>
	<text x="1250" y="70">=</text>

	<!-- Top row -->

	<rect x="170" y="120" rx="5" ry="5" width="80" height="80"/>
	<text x="200" y="170">'</text>
	<rect x="270" y="120" rx="5" ry="5" width="80" height="80"/>
	<text x="300" y="170">w</text>
	<rect x="370" y="120" rx="5" ry="5" width="80" height="80"/>
	<text x="400" y="170">t</text>
	<rect x="470" y="120" rx="5" ry="5" width="80" height="80"/>
	<text x="500" y="170">l</text>
	<rect x="570" y="120" rx="5" ry="5" width="80" height="80"/>
	<text x="600" y="170">y</text>
	<rect x="670" y="120" rx="5" ry="5" width="80" height="80"/>
	<text x="700" y="170">x</text>
	<rect x="770" y="120" rx="5" ry="5" width="80" height="80"/>
	<text x="800" y="170">u</text>
	<rect x="870" y="120" rx="5" ry="5" width="80" height="80"/>
	<text x="900" y="170">v</text>
	<rect x="970" y="120" rx="5" ry="5" width="80" height="80"/>
	<text x="1000" y="170">h</text>
	<rect x="1070" y="120" rx="5" ry="5" width="80" height="80"/>
	<text x="1100" y="170">k</text>
	<rect x="1170" y="120" rx="5" ry="5" width="80" height="80"/>
	<text x="1200" y="170">{</text>
	<rect x="1270" y="120" rx="5" ry="5" width="80" height="80"/>
	<text x="1300" y="170">}</text>

	<!-- Home row -->

	<rect x="200" y="220" rx="5" ry="5" width="80" height="80"/>
	<text x="230" y="270">d</text>
	<rect x="300" y="220" rx="5" ry="5" width="80" height="80"/>
	<text x="330" y="270">r</text>
	<rect x="400" y="220" rx="5" ry="5" width="80" height="80"/>
	<text x="430" y="270">i</text>
	<rect x="500" y="220" rx="5" ry="5" width="80" height="80"/>
	<text x="530" y="270">s</text>
	<rect x="600" y="220" rx="5" ry="5" width="80" height="80"/>
	<text x="630" y="270">n</text>
	<rect x="700" y="220" rx="5" ry="5" width="80" height="80"/>
	<text x="730" y="270">o</text>
	<rect x="800" y="220" rx="5" ry="5" width="80" height="80"/>
	<text x="830" y="270">e</text>
	<rect x="900" y="220" rx="5" ry="5" width="80" height="80"/>
	<text x="930" y="270">a</text>
	<rect x="1000" y="220" rx="5" ry="5" width="80" height="80"/>
	<text x="1030" y="270">m</text>
	<rect x="1100" y="220" rx="5" ry="5" width="80" height="80"/>
	<text x="1130" y="270">b</text>
	<rect x="1200" y="220" rx="5" ry="5" width="80" height="80"/>
	<text x="1230" y="270">g</text>
	<rect x="1300" y="220" rx="5" ry="5" width="80" height="80"/>
	<text x="1330" y="270">"</text>

	<!-- Bottom row -->

	<rect x="150" y="320" rx="5" ry="5" width="80" height="80"/>
	<text x="180" y="370">j</text>
	<rect x="250" y="320" rx="5" ry="5" width="80" height="80"/>
	<text x="280" y="370">`</text>
	<rect x="350" y="320" rx="5" ry="5" width="80" height="80"/>
	<text x="380" y="370">$</text>
	<rect x="450" y="320" rx="5" ry="5" width="80" height="80"/>
	<text x="480" y="370">q</text>
	<rect x="550" y="320" rx="5" ry="5" width="80" height="80"/>
	<text x="580" y="370">c</text>
	<rect x="650" y="320" rx="5" ry="5" width="80" height="80"/>
	<text x="680" y="370">z</text>
	<rect x="750" y="320" rx="5" ry="5" width="80" height="80"/>
	<text x="780" y="370">.</text>
	<rect x="850" y="320" rx="5" ry="5" width="80" height="80"/>
	<text x="880" y="370">,</text>
	<rect x="950" y="320" rx="5" ry="5" width="80" height="80"/>
	<text x="980" y="370">p</text>
	<rect x="1050" y="320" rx="5" ry="5" width="80" height="80"/>
	<text x="1080" y="370">f</text>
	<rect x="1150" y="320" rx="5" ry="5" width="80" height="80"/>
	<text x="1180" y="370">_</text>

	<!-- Space row -->

	<rect x="20" y="420" rx="5" ry="5" width="130" height="80"/>
	<text x="40" y="470">⎈</text>
	<rect x="170" y="420" rx="5" ry="5" width="110" height="80"/>
	<text x="210" y="470">⁜</text>
	<rect x="300" y="420" rx="5" ry="5" width="110" height="80"/>
	<text x="330" y="470">⎇</text>
	<rect x="430" y="420" rx="5" ry="5" width="570" height="80"/>
	<rect x="1020" y="420" rx="5" ry="5" width="110" height="80"/>
	<text x="1050" y="470">⎇</text>
	<rect x="1150" y="420" rx="5" ry="5" width="110" height="80"/>
	<text x="1190" y="470">⁜</text>
	<rect x="1280" y="420" rx="5" ry="5" width="110" height="80"/>
	<text x="1320" y="470">≣</text>
	<rect x="1410" y="420" rx="5" ry="5" width="110" height="80"/>
	<text x="1450" y="470">⎈</text>

	</g>

	<g transform="translate(1540 520)">

	<!-- English part. Level 2 -->

	<!-- Case -->

	<rect x="3" y="3" rx="3" ry="3" width="1534" height="514"/>

	<!-- Left column -->

	<rect x="20" y="120" rx="5" ry="5" width="130" height="80"/>
	<text x="40" y="170">⭾</text>
	<a xlink:href="dris.svg#svgView(viewBox(0,0,1540,520))">
	<rect x="20" y="220" rx="5" ry="5" width="160" height="80"/>
	<text x="40" y="270">⌨</text>
	</a>
	<a xlink:href="dris.svg#svgView(viewBox(0,520,1540,520))">
	<rect x="20" y="320" rx="5" ry="5" width="110" height="80"/>
	<text x="40" y="370">⇧</text>
	</a>

	<!-- Right column -->

	<rect x="1320" y="20" rx="5" ry="5" width="200" height="80"/>
	<text x="1340" y="70">⟵</text>
	<polygon points="1370,120 1520,120 1520,300 1400,300 1400,200 1370,200" stroke-linejoin="round"/>
	<text x="1450" y="180">⮐</text>
	<a xlink:href="dris.svg#svgView(viewBox(0,520,1540,520))">
	<rect x="1250" y="320" rx="5" ry="5" width="270" height="80"/>
	<text x="1450" y="370">⇧</text>
	</a>

	<!-- Numeric row -->

	<rect x="20" y="20" rx="5" ry="5" width="80" height="80"/>
	<text x="50" y="70">~</text>
	<rect x="120" y="20" rx="5" ry="5" width="80" height="80"/>
	<text x="150" y="70">!</text>
	<rect x="220" y="20" rx="5" ry="5" width="80" height="80"/>
	<text x="250" y="70">@</text>
	<rect x="320" y="20" rx="5" ry="5" width="80" height="80"/>
	<text x="350" y="70">#</text>
	<rect x="420" y="20" rx="5" ry="5" width="80" height="80"/>
	<text x="450" y="70">§</text>
	<rect x="520" y="20" rx="5" ry="5" width="80" height="80"/>
	<text x="550" y="70">%</text>
	<rect x="620" y="20" rx="5" ry="5" width="80" height="80"/>
	<text x="650" y="70">^</text>
	<rect x="720" y="20" rx="5" ry="5" width="80" height="80"/>
	<text x="750" y="70">&amp;</text>
	<rect x="820" y="20" rx="5" ry="5" width="80" height="80"/>
	<text x="850" y="70">*</text>
	<rect x="920" y="20" rx="5" ry="5" width="80" height="80"/>
	<text x="950" y="70">(</text>
	<rect x="1020" y="20" rx="5" ry="5" width="80" height="80"/>
	<text x="1050" y="70">)</text>
	<rect x="1120" y="20" rx="5" ry="5" width="80" height="80"/>
	<text x="1150" y="70">?</text>
	<rect x="1220" y="20" rx="5" ry="5" width="80" height="80"/>
	<text x="1250" y="70">+</text>

	<!-- Top row -->

	<rect x="170" y="120" rx="5" ry="5" width="80" height="80"/>
	<text x="200" y="170">\</text>
	<rect x="270" y="120" rx="5" ry="5" width="80" height="80"/>
	<text x="300" y="170">W</text>
	<rect x="370" y="120" rx="5" ry="5" width="80" height="80"/>
	<text x="400" y="170">T</text>
	<rect x="470" y="120" rx="5" ry="5" width="80" height="80"/>
	<text x="500" y="170">L</text>
	<rect x="570" y="120" rx="5" ry="5" width="80" height="80"/>
	<text x="600" y="170">Y</text>
	<rect x="670" y="120" rx="5" ry="5" width="80" height="80"/>
	<text x="700" y="170">X</text>
	<rect x="770" y="120" rx="5" ry="5" width="80" height="80"/>
	<text x="800" y="170">U</text>
	<rect x="870" y="120" rx="5" ry="5" width="80" height="80"/>
	<text x="900" y="170">V</text>
	<rect x="970" y="120" rx="5" ry="5" width="80" height="80"/>
	<text x="1000" y="170">H</text>
	<rect x="1070" y="120" rx="5" ry="5" width="80" height="80"/>
	<text x="1100" y="170">K</text>
	<rect x="1170" y="120" rx="5" ry="5" width="80" height="80"/>
	<text x="1200" y="170">[</text>
	<rect x="1270" y="120" rx="5" ry="5" width="80" height="80"/>
	<text x="1300" y="170">]</text>

	<!-- Home row -->

	<rect x="200" y="220" rx="5" ry="5" width="80" height="80"/>
	<text x="230" y="270">D</text>
	<rect x="300" y="220" rx="5" ry="5" width="80" height="80"/>
	<text x="330" y="270">R</text>
	<rect x="400" y="220" rx="5" ry="5" width="80" height="80"/>
	<text x="430" y="270">I</text>
	<rect x="500" y="220" rx="5" ry="5" width="80" height="80"/>
	<text x="530" y="270">S</text>
	<rect x="600" y="220" rx="5" ry="5" width="80" height="80"/>
	<text x="630" y="270">N</text>
	<rect x="700" y="220" rx="5" ry="5" width="80" height="80"/>
	<text x="730" y="270">O</text>
	<rect x="800" y="220" rx="5" ry="5" width="80" height="80"/>
	<text x="830" y="270">E</text>
	<rect x="900" y="220" rx="5" ry="5" width="80" height="80"/>
	<text x="930" y="270">A</text>
	<rect x="1000" y="220" rx="5" ry="5" width="80" height="80"/>
	<text x="1030" y="270">M</text>
	<rect x="1100" y="220" rx="5" ry="5" width="80" height="80"/>
	<text x="1130" y="270">B</text>
	<rect x="1200" y="220" rx="5" ry="5" width="80" height="80"/>
	<text x="1230" y="270">G</text>
	<rect x="1300" y="220" rx="5" ry="5" width="80" height="80"/>
	<text x="1330" y="270">|</text>

	<!-- Bottom row -->

	<rect x="150" y="320" rx="5" ry="5" width="80" height="80"/>
	<text x="180" y="370">J</text>
	<rect x="250" y="320" rx="5" ry="5" width="80" height="80"/>
	<text x="280" y="370">&lt;</text>
	<rect x="350" y="320" rx="5" ry="5" width="80" height="80"/>
	<text x="380" y="370">&gt;</text>
	<rect x="450" y="320" rx="5" ry="5" width="80" height="80"/>
	<text x="480" y="370">Q</text>
	<rect x="550" y="320" rx="5" ry="5" width="80" height="80"/>
	<text x="580" y="370">C</text>
	<rect x="650" y="320" rx="5" ry="5" width="80" height="80"/>
	<text x="680" y="370">Z</text>
	<rect x="750" y="320" rx="5" ry="5" width="80" height="80"/>
	<text x="780" y="370">:</text>
	<rect x="850" y="320" rx="5" ry="5" width="80" height="80"/>
	<text x="880" y="370">;</text>
	<rect x="950" y="320" rx="5" ry="5" width="80" height="80"/>
	<text x="980" y="370">P</text>
	<rect x="1050" y="320" rx="5" ry="5" width="80" height="80"/>
	<text x="1080" y="370">F</text>
	<rect x="1150" y="320" rx="5" ry="5" width="80" height="80"/>
	<text x="1180" y="370">—</text>

	<!-- Space row -->

	<rect x="20" y="420" rx="5" ry="5" width="130" height="80"/>
	<text x="40" y="470">⎈</text>
	<rect x="170" y="420" rx="5" ry="5" width="110" height="80"/>
	<text x="210" y="470">⁜</text>
	<rect x="300" y="420" rx="5" ry="5" width="110" height="80"/>
	<text x="330" y="470">⎇</text>
	<rect x="430" y="420" rx="5" ry="5" width="570" height="80"/>
	<rect x="1020" y="420" rx="5" ry="5" width="110" height="80"/>
	<text x="1050" y="470">⎇</text>
	<rect x="1150" y="420" rx="5" ry="5" width="110" height="80"/>
	<text x="1190" y="470">⁜</text>
	<rect x="1280" y="420" rx="5" ry="5" width="110" height="80"/>
	<text x="1320" y="470">≣</text>
	<rect x="1410" y="420" rx="5" ry="5" width="110" height="80"/>
	<text x="1450" y="470">⎈</text>

	</g>

</svg>
